<svg width="89" height="36" viewBox="0 0 89 36" fill="none" xmlns="http://www.w3.org/2000/svg">
<path id="Vector" d="M41.9675 12.5953C41.8845 12.5953 41.8015 12.6856 41.7185 12.6856C41.2204 12.9564 40.7222 13.2272 40.3072 13.5883L36.6544 11.9635L38.3977 16.2964C38.1487 17.0185 37.9827 17.7407 37.9827 18.4628L19.4696 12.8661C19.4696 12.8661 -0.122733 23.2471 0.541414 35.7043C0.541414 35.7043 11.9979 20.2682 20.0507 21.6223C20.0507 21.6223 38.9789 26.9482 45.4543 27.219C51.0165 23.4277 65.0466 8.71375 65.0466 8.71375C71.439 3.20731 88.3748 10.4289 88.3748 10.4289C83.3106 -0.764539 61.5599 0.770035 61.5599 0.770035L48.0279 15.5742C47.6958 14.9423 47.2807 14.3105 46.6996 13.8591L46.2845 9.1651L43.8769 12.5051C43.3788 12.4148 42.7977 12.4148 42.2166 12.4148C42.2166 12.5051 42.0505 12.5051 41.9675 12.5953Z" fill="#333333"/>
</svg>
