<svg width="97" height="86" viewBox="0 0 97 86" fill="none" xmlns="http://www.w3.org/2000/svg">
<g id="Group">
<g id="Vector">
<path d="M27.2154 85.6271L27.2544 82.8622C27.2544 82.7843 27.2543 76.5925 22.8903 72.8541C19.851 70.245 15.37 69.3883 9.60322 70.3229L7.73289 70.6344L8.59013 68.921C8.62909 68.8431 12.7983 60.4706 10.2266 53.1106C8.9408 49.4111 6.13533 46.5294 1.88814 44.5823L0.173706 43.8035L1.77125 42.8689C1.92711 42.791 16.1493 34.4185 16.5 26.007C16.6169 23.1643 15.0583 20.5552 11.8632 18.2966C11.8242 18.2966 11.8242 18.2576 11.8242 18.2576L12.9542 16.6999C12.9542 16.6999 12.9542 16.6999 12.9932 16.6999C13.2269 16.8557 16.6559 19.1533 21.5265 18.1018C26.9037 16.9336 32.0081 12.2216 36.606 4.08277L37.4242 2.68086L38.2814 4.04382C38.3204 4.1217 42.6455 10.8197 50.3606 11.8711C56.3222 12.6889 62.7514 9.963 69.4924 3.84913L72.6486 0.967407L71.051 4.90055C70.6224 5.95198 60.9591 30.8358 92.6766 43.8035L96.4172 45.3222L92.4038 45.6727C92.2479 45.6727 75.6099 47.1914 68.3624 57.3553C64.9335 62.1062 64.1152 68.1032 65.8687 75.1517L66.609 78.1892L64.2711 76.1252C64.1932 76.0863 57.8419 70.5176 48.8799 71.2186C41.9052 71.7637 35.2032 75.8916 28.9688 83.4463L27.2154 85.6271ZM13.8894 68.0253C18.1365 68.0253 21.5655 69.1546 24.1761 71.4133C27.4492 74.2171 28.5792 78.0723 28.9688 80.5257C35.1253 73.6329 41.7883 69.8945 48.7241 69.3494C55.426 68.8042 60.6473 71.4133 63.4138 73.1656C62.2839 66.6234 63.4138 60.9768 66.7648 56.3038C72.5317 48.2428 83.286 45.3222 88.819 44.3097C65.3232 33.1724 66.6869 14.8307 68.3234 7.47072C62.0111 12.4942 55.8546 14.636 50.0878 13.8572C43.5417 12.9615 39.3335 8.60002 37.5801 6.41928C32.8653 14.2855 27.605 18.8807 21.9161 20.0879C19.89 20.5162 18.0976 20.4773 16.6169 20.2047C17.9807 22.035 18.6041 24.06 18.4872 26.2018C18.1365 33.9901 8.12254 41.1944 4.26501 43.7256C8.12254 45.8674 10.7332 48.827 12.058 52.5654C14.2011 58.7182 12.2139 65.2605 11.006 68.22C12.0191 68.0643 12.9542 68.0253 13.8894 68.0253Z" fill="#333333"/>
<path d="M27.2154 85.6271L27.2544 82.8622C27.2544 82.7843 27.2543 76.5925 22.8903 72.8541C19.851 70.245 15.37 69.3883 9.60322 70.3229L7.73289 70.6344L8.59013 68.921C8.62909 68.8431 12.7983 60.4706 10.2266 53.1106C8.9408 49.4111 6.13533 46.5294 1.88814 44.5823L0.173706 43.8035L1.77125 42.8689C1.92711 42.791 16.1493 34.4185 16.5 26.007C16.6169 23.1643 15.0583 20.5552 11.8632 18.2966C11.8242 18.2966 11.8242 18.2576 11.8242 18.2576L12.9542 16.6999C12.9542 16.6999 12.9542 16.6999 12.9932 16.6999C13.2269 16.8557 16.6559 19.1533 21.5265 18.1018C26.9037 16.9336 32.0081 12.2216 36.606 4.08277L37.4242 2.68086L38.2814 4.04382C38.3204 4.1217 42.6455 10.8197 50.3606 11.8711C56.3222 12.6889 62.7514 9.963 69.4924 3.84913L72.6486 0.967407L71.051 4.90055C70.6224 5.95198 60.9591 30.8358 92.6766 43.8035L96.4172 45.3222L92.4038 45.6727C92.2479 45.6727 75.6099 47.1914 68.3624 57.3553C64.9335 62.1062 64.1152 68.1032 65.8687 75.1517L66.609 78.1892L64.2711 76.1252C64.1932 76.0863 57.8419 70.5176 48.8799 71.2186C41.9052 71.7637 35.2032 75.8916 28.9688 83.4463L27.2154 85.6271ZM13.8894 68.0253C18.1365 68.0253 21.5655 69.1546 24.1761 71.4133C27.4492 74.2171 28.5792 78.0723 28.9688 80.5257C35.1253 73.6329 41.7883 69.8945 48.7241 69.3494C55.426 68.8042 60.6473 71.4133 63.4138 73.1656C62.2839 66.6234 63.4138 60.9768 66.7648 56.3038C72.5317 48.2428 83.286 45.3222 88.819 44.3097C65.3232 33.1724 66.6869 14.8307 68.3234 7.47072C62.0111 12.4942 55.8546 14.636 50.0878 13.8572C43.5417 12.9615 39.3335 8.60002 37.5801 6.41928C32.8653 14.2855 27.605 18.8807 21.9161 20.0879C19.89 20.5162 18.0976 20.4773 16.6169 20.2047C17.9807 22.035 18.6041 24.06 18.4872 26.2018C18.1365 33.9901 8.12254 41.1944 4.26501 43.7256C8.12254 45.8674 10.7332 48.827 12.058 52.5654C14.2011 58.7182 12.2139 65.2605 11.006 68.22C12.0191 68.0643 12.9542 68.0253 13.8894 68.0253Z" fill="black" fill-opacity="0.6"/>
</g>
</g>
</svg>
